"Position","Name","Type","Signal","Label"
"1","PE2","I/O","GPIO_Analog",""
"2","PE3","I/O","GPIO_Analog",""
"3","PE4","I/O","GPIO_Analog",""
"4","PE5","I/O","GPIO_Analog",""
"5","PE6","I/O","GPIO_Analog",""
"6","VBAT","Power","",""
"7","PC13-ANTI_TAMP","I/O","GPIO_Analog",""
"8","PC14-OSC32_IN","Output","GPIO_Output",""
"9","PC15-OSC32_OUT","Output","GPIO_Output",""
"10","VSS","Power","",""
"11","VDD","Power","",""
"12","PH0-OSC_IN","I/O","",""
"13","PH1-OSC_OUT","I/O","",""
"14","NRST","Reset","",""
"15","PC0","I/O","GPIO_Analog",""
"16","PC1","I/O","GPIO_Analog",""
"17","PC2","I/O","GPIO_Analog",""
"18","PC3","I/O","GPIO_Analog",""
"19","VDD","Power","",""
"20","VSSA","Power","",""
"21","VREF+","Power","",""
"22","VDDA","Power","",""
"23","PA0-WKUP","I/O","TIM5_CH1","ENC_1A"
"24","PA1","I/O","TIM5_CH2","ENC_1B"
"25","PA2","I/O","",""
"26","PA3","I/O","GPIO_Analog",""
"27","VSS","Power","",""
"28","VDD","Power","",""
"29","PA4","I/O","GPIO_Analog",""
"30","PA5","I/O","GPIO_Analog",""
"31","PA6","I/O","GPIO_Analog",""
"32","PA7","I/O","GPIO_Analog",""
"33","PC4","I/O","GPIO_Analog",""
"34","PC5","I/O","GPIO_Analog",""
"35","PB0","Output","GPIO_Output",""
"36","PB1","Output","GPIO_Output",""
"37","PB2","Output","GPIO_Output",""
"38","PE7","Output","GPIO_Output",""
"39","PE8","Output","GPIO_Output",""
"40","PE9","I/O","TIM1_CH1","PWM_MOTOR"
"41","PE10","I/O","GPIO_Analog",""
"42","PE11","I/O","GPIO_Analog",""
"43","PE12","Input","GPIO_Input",""
"44","PE13","Input","GPIO_Input",""
"45","PE14","Input","GPIO_Input",""
"46","PE15","Input","GPIO_Input",""
"47","PB10","I/O","USART3_TX","GPS_RX"
"48","PB11","I/O","USART3_RX","GPS_TX"
"49","VCAP_1","Power","",""
"50","VDD","Power","",""
"51","PB12","Output","GPIO_Output",""
"52","PB13","Output","GPIO_Output",""
"53","PB14","I/O","",""
"54","PB15","I/O","",""
"55","PD8","Input","GPIO_Input",""
"56","PD9","Input","GPIO_Input",""
"57","PD10","Input","GPIO_Input",""
"58","PD11","Input","GPIO_Input",""
"59","PD12","I/O","TIM4_CH1","ENC_4A"
"60","PD13","I/O","TIM4_CH2","ENC_4B"
"61","PD14","Input","GPIO_Input",""
"62","PD15","Input","GPIO_Input",""
"63","PC6","I/O","TIM3_CH1","ENC_3A"
"64","PC7","I/O","TIM3_CH2","ENC_3B"
"65","PC8","Input","GPIO_Input","SIDE_IR"
"66","PC9","Input","GPIO_Input","FRONT_IR_FAR"
"67","PA8","Input","GPIO_Input","FRONT_IR_REAR"
"68","PA9","Input","GPIO_Input","REAR_IR_FAR"
"69","PA10","Input","GPIO_Input","REAR_IR_NEAR"
"70","PA11","Output","GPIO_Output","BASE_8_MOTORB"
"71","PA12","Output","GPIO_Output","BASE_8_MOTORA"
"72","PA13","I/O","",""
"73","VCAP_2","Power","",""
"74","VSS","Power","",""
"75","VDD","Power","",""
"76","PA14","I/O","",""
"77","PA15","I/O","TIM2_CH1","ENC_2A"
"78","PC10","I/O","",""
"79","PC11","Output","GPIO_Output",""
"80","PC12","Output","GPIO_Output",""
"81","PD0","Output","GPIO_Output",""
"82","PD1","Output","GPIO_Output",""
"83","PD2","Output","GPIO_Output",""
"84","PD3","Output","GPIO_Output",""
"85","PD4","I/O","",""
"86","PD5","I/O","USART2_TX",""
"87","PD6","I/O","USART2_RX",""
"88","PD7","I/O","",""
"89","PB3","I/O","TIM2_CH2","ENC_2B"
"90","PB4","Output","GPIO_Output",""
"91","PB5","Output","GPIO_Output",""
"92","PB6","I/O","USART1_TX",""
"93","PB7","I/O","USART1_RX",""
"94","BOOT0","Boot","",""
"95","PB8","I/O","I2C1_SCL",""
"96","PB9","I/O","I2C1_SDA",""
"97","PE0","Output","GPIO_Output",""
"98","PE1","Output","GPIO_Output",""
"99","VSS","Power","",""
"100","VDD","Power","",""
